…
Es recomendable cuando se trabaja con distancias y velocidades.

2.4. Ejemplos

1. Para los siguientes datos:

library(dplyr)
library(kableExtra)
set.seed(999)
x <- round(runif(80,15,35), 0)
x <- data.frame(x)
t1 <- x %>% group_by(x) %>% count(name = "fi") 
t1 #%>% kable(align = "c") %>% kable_styling()

## # A tibble: 21 x 2
## # Groups:   x [21]
##        x    fi
##    <dbl> <int>
##  1    15     2
##  2    16     4
##  3    17     7
##  4    18     4
##  5    19     2
##  6    20     3
##  7    21     3
##  8    22     4
##  9    23     3
## 10    24     5
## # ... with 11 more rows
…
